lab5/reg_file.vcd
$date
	Tue Sep 17 14:31:38 2019
$end
$version
	Icarus Verilog
$end
$timescale
	1s
$end
$scope module tb32reg $end
$var wire 32 ! q [31:0] $end
$var reg 1 " clk $end
$var reg 32 # d [31:0] $end
$var reg 1 $ reset $end
$scope module R $end
$var wire 1 " clk $end
$var wire 32 % d [31:0] $end
$var wire 1 $ reset $end
$var wire 32 & q [31:0] $end
$scope begin reg_loop[0] $end
$scope module m $end
$var wire 1 " clk $end
$var wire 1 ' d $end
$var wire 1 $ reset $end
$var reg 1 ( q $end
$upscope $end
$upscope $end
$scope begin reg_loop[1] $end
$scope module m $end
$var wire 1 " clk $end
$var wire 1 ) d $end
$var wire 1 $ reset $end
$var reg 1 * q $end
$upscope $end
$upscope $end
$scope begin reg_loop[2] $end
$scope module m $end
$var wire 1 " clk $end
$var wire 1 + d $end
$var wire 1 $ reset $end
$var reg 1 , q $end
$upscope $end
$upscope $end
$scope begin reg_loop[3] $end
$scope module m $end
$var wire 1 " clk $end
$var wire 1 - d $end
$var wire 1 $ reset $end
$var reg 1 . q $end
$upscope $end
$upscope $end
$scope begin reg_loop[4] $end
$scope module m $end
$var wire 1 " clk $end
$var wire 1 / d $end
$var wire 1 $ reset $end
$var reg 1 0 q $end
$upscope $end
$upscope $end
$scope begin reg_loop[5] $end
$scope module m $end
$var wire 1 " clk $end
$var wire 1 1 d $end
$var wire 1 $ reset $end
$var reg 1 2 q $end
$upscope $end
$upscope $end
$scope begin reg_loop[6] $end
$scope module m $end
$var wire 1 " clk $end
$var wire 1 3 d $end
$var wire 1 $ reset $end
$var reg 1 4 q $end
$upscope $end
$upscope $end
$scope begin reg_loop[7] $end
$scope module m $end
$var wire 1 " clk $end
$var wire 1 5 d $end
$var wire 1 $ reset $end
$var reg 1 6 q $end
$upscope $end
$upscope $end
$scope begin reg_loop[8] $end
$scope module m $end
$var wire 1 " clk $end
$var wire 1 7 d $end
$var wire 1 $ reset $end
$var reg 1 8 q $end
$upscope $end
$upscope $end
$scope begin reg_loop[9] $end
$scope module m $end
$var wire 1 " clk $end
$var wire 1 9 d $end
$var wire 1 $ reset $end
$var reg 1 : q $end
$upscope $end
$upscope $end
$scope begin reg_loop[10] $end
$scope module m $end
$var wire 1 " clk $end
$var wire 1 ; d $end
$var wire 1 $ reset $end
$var reg 1 < q $end
$upscope $end
$upscope $end
$scope begin reg_loop[11] $end
$scope module m $end
$var wire 1 " clk $end
$var wire 1 = d $end
$var wire 1 $ reset $end
$var reg 1 > q $end
$upscope $end
$upscope $end
$scope begin reg_loop[12] $end
$scope module m $end
$var wire 1 " clk $end
$var wire 1 ? d $end
$var wire 1 $ reset $end
$var reg 1 @ q $end
$upscope $end
$upscope $end
$scope begin reg_loop[13] $end
$scope module m $end
$var wire 1 " clk $end
$var wire 1 A d $end
$var wire 1 $ reset $end
$var reg 1 B q $end
$upscope $end
$upscope $end
$scope begin reg_loop[14] $end
$scope module m $end
$var wire 1 " clk $end
$var wire 1 C d $end
$var wire 1 $ reset $end
$var reg 1 D q $end
$upscope $end
$upscope $end
$scope begin reg_loop[15] $end
$scope module m $end
$var wire 1 " clk $end
$var wire 1 E d $end
$var wire 1 $ reset $end
$var reg 1 F q $end
$upscope $end
$upscope $end
$scope begin reg_loop[16] $end
$scope module m $end
$var wire 1 " clk $end
$var wire 1 G d $end
$var wire 1 $ reset $end
$var reg 1 H q $end
$upscope $end
$upscope $end
$scope begin reg_loop[17] $end
$scope module m $end
$var wire 1 " clk $end
$var wire 1 I d $end
$var wire 1 $ reset $end
$var reg 1 J q $end
$upscope $end
$upscope $end
$scope begin reg_loop[18] $end
$scope module m $end
$var wire 1 " clk $end
$var wire 1 K d $end
$var wire 1 $ reset $end
$var reg 1 L q $end
$upscope $end
$upscope $end
$scope begin reg_loop[19] $end
$scope module m $end
$var wire 1 " clk $end
$var wire 1 M d $end
$var wire 1 $ reset $end
$var reg 1 N q $end
$upscope $end
$upscope $end
$scope begin reg_loop[20] $end
$scope module m $end
$var wire 1 " clk $end
$var wire 1 O d $end
$var wire 1 $ reset $end
$var reg 1 P q $end
$upscope $end
$upscope $end
$scope begin reg_loop[21] $end
$scope module m $end
$var wire 1 " clk $end
$var wire 1 Q d $end
$var wire 1 $ reset $end
$var reg 1 R q $end
$upscope $end
$upscope $end
$scope begin reg_loop[22] $end
$scope module m $end
$var wire 1 " clk $end
$var wire 1 S d $end
$var wire 1 $ reset $end
$var reg 1 T q $end
$upscope $end
$upscope $end
$scope begin reg_loop[23] $end
$scope module m $end
$var wire 1 " clk $end
$var wire 1 U d $end
$var wire 1 $ reset $end
$var reg 1 V q $end
$upscope $end
$upscope $end
$scope begin reg_loop[24] $end
$scope module m $end
$var wire 1 " clk $end
$var wire 1 W d $end
$var wire 1 $ reset $end
$var reg 1 X q $end
$upscope $end
$upscope $end
$scope begin reg_loop[25] $end
$scope module m $end
$var wire 1 " clk $end
$var wire 1 Y d $end
$var wire 1 $ reset $end
$var reg 1 Z q $end
$upscope $end
$upscope $end
$scope begin reg_loop[26] $end
$scope module m $end
$var wire 1 " clk $end
$var wire 1 [ d $end
$var wire 1 $ reset $end
$var reg 1 \ q $end
$upscope $end
$upscope $end
$scope begin reg_loop[27] $end
$scope module m $end
$var wire 1 " clk $end
$var wire 1 ] d $end
$var wire 1 $ reset $end
$var reg 1 ^ q $end
$upscope $end
$upscope $end
$scope begin reg_loop[28] $end
$scope module m $end
$var wire 1 " clk $end
$var wire 1 _ d $end
$var wire 1 $ reset $end
$var reg 1 ` q $end
$upscope $end
$upscope $end
$scope begin reg_loop[29] $end
$scope module m $end
$var wire 1 " clk $end
$var wire 1 a d $end
$var wire 1 $ reset $end
$var reg 1 b q $end
$upscope $end
$upscope $end
$scope begin reg_loop[30] $end
$scope module m $end
$var wire 1 " clk $end
$var wire 1 c d $end
$var wire 1 $ reset $end
$var reg 1 d q $end
$upscope $end
$upscope $end
$scope begin reg_loop[31] $end
$scope module m $end
$var wire 1 " clk $end
$var wire 1 e d $end
$var wire 1 $ reset $end
$var reg 1 f q $end
$upscope $end
$upscope $end
$upscope $end
$upscope $end
$enddefinitions $end
#0
$dumpvars
0f
xe
0d
xc
0b
xa
0`
x_
0^
x]
0\
x[
0Z
xY
0X
xW
0V
xU
0T
xS
0R
xQ
0P
xO
0N
xM
0L
xK
0J
xI
0H
xG
0F
xE
0D
xC
0B
xA
0@
x?
0>
x=
0<
x;
0:
x9
08
x7
06
x5
04
x3
02
x1
00
x/
0.
x-
0,
x+
0*
x)
0(
x'
b0 &
bx %
0$
bx #
1"
b0 !
$end
#5
0"
#10
1"
#15
0"
#20
x(
x*
x,
x.
x0
x2
x4
x6
x8
x:
x<
x>
x@
xB
xD
xF
xH
xJ
xL
xN
xP
xR
xT
xV
xX
xZ
x\
x^
x`
xb
xd
bx !
bx &
xf
1"
1$
#25
0"
#30
1"
#35
0"
#40
1(
1*
1,
1.
00
12
04
16
18
1:
1<
1>
0@
1B
0D
1F
1H
1J
1L
1N
0P
1R
0T
1V
1X
1Z
1\
1^
0`
1b
0d
b10101111101011111010111110101111 !
b10101111101011111010111110101111 &
1f
1"
1'
1)
1+
1-
0/
11
03
15
17
19
1;
1=
0?
1A
0C
1E
1G
1I
1K
1M
0O
1Q
0S
1U
1W
1Y
1[
1]
0_
1a
0c
1e
b10101111101011111010111110101111 #
b10101111101011111010111110101111 %
#45
0"
#50
1"
#55
0"
#60
02
06
1@
0R
b10101111110011111011111100001111 !
b10101111110011111011111100001111 &
1T
1"
01
05
1?
0Q
1S
b10101111110011111011111100001111 #
b10101111110011111011111100001111 %
#65
0"
#70
1"
#75
0"
#80
12
16
0F
0H
0J
0N
0T
0V
0X
b10101100000001000011111110101111 !
b10101100000001000011111110101111 &
0Z
11
15
0E
0G
0I
0M
0S
0U
0W
0Y
0"
b10101100000001000011111110101111 #
b10101100000001000011111110101111 %
#85
1"
#90
0"
#95
1"
#100
0"
0'
0)
0-
1/
05
07
0;
0=
0?
1E
1G
1I
1M
1Q
1U
1W
1Y
b10101111101011111010001000110100 #
b10101111101011111010001000110100 %
#105
1Z
1X
1V
1R
1N
1J
1H
1F
0@
0>
0<
08
06
10
0.
0*
b10101111101011111010001000110100 !
b10101111101011111010001000110100 &
0(
1"
#110
0"
#115
1"
#120
0"
1'
1)
1-
0/
13
1=
1?
0A
1C
0E
0G
0I
0M
0U
b10101111001001000101101001101111 #
b10101111001001000101101001101111 %
#125
0V
0N
0J
0H
0F
1D
0B
1@
1>
14
00
1.
1*
b10101111001001000101101001101111 !
b10101111001001000101101001101111 &
1(
1"
